{
    "openapi": "3.0.2",
    "info": {
        "title": "Laravel",
        "version": "1.0.0"
    },
    "servers": [
        {
            "url": "http:\/\/localhost"
        }
    ],
    "paths": {
        "\/api\/products\/store": {
            "post": {
                "tags": [
                    "products"
                ],
                "summary": "Create new Product",
                "requestBody": {
                    "description": "Products data",
                    "content": {
                        "application\/json": {
                            "schema": {
                                "$ref": "#\/components\/schemas\/Products"
                            }
                        }
                    }
                },
                "responses": {
                    "200": {
                        "description": "Product successfully created"
                    }
                }
            }
        },
        "\/api\/products\/list": {
            "get": {
                "tags": [
                    "products"
                ],
                "summary": "List products.",
                "responses": {
                    "200": {
                        "description": "Products listed"
                    }
                }
            }
        },
        "\/api\/products\/show": {
            "get": {
                "tags": [
                    "products"
                ],
                "summary": "Show product.",
                "parameters": [
                    {
                        "name": "id",
                        "in": "query",
                        "description": "Product id",
                        "required": true,
                        "schema": {
                            "type": "integer"
                        }
                    }
                ],
                "responses": {
                    "200": {
                        "description": "Product detail"
                    }
                }
            }
        },
        "\/api\/orders\/store": {
            "post": {
                "tags": [
                    "orders"
                ],
                "summary": "Create new order",
                "requestBody": {
                    "description": "Orders data",
                    "content": {
                        "application\/json": {
                            "schema": {
                                "$ref": "#\/components\/schemas\/Orders"
                            }
                        }
                    }
                },
                "responses": {
                    "200": {
                        "description": "Product successfully created"
                    }
                }
            }
        },
        "\/api\/orders\/list": {
            "get": {
                "tags": [
                    "orders"
                ],
                "summary": "List orders.",
                "responses": {
                    "200": {
                        "description": "Orders listed"
                    }
                }
            }
        },
        "\/api\/orders\/show": {
            "get": {
                "tags": [
                    "orders"
                ],
                "summary": "Show order.",
                "parameters": [
                    {
                        "name": "id",
                        "in": "query",
                        "description": "Order id",
                        "required": true,
                        "schema": {
                            "type": "integer"
                        }
                    }
                ],
                "responses": {
                    "200": {
                        "description": "Product detail"
                    }
                }
            }
        },
        "\/api\/quotations": {
            "post": {
                "tags": [
                    "quotations"
                ],
                "requestBody": {
                    "description": "Quotation data",
                    "content": {
                        "application\/json": {
                            "schema": {
                                "$ref": "#\/components\/schemas\/Quotation"
                            }
                        }
                    }
                },
                "responses": {
                    "200": {
                        "description": "Quotation successfully done!"
                    }
                }
            }
        }
    },
    "components": {
        "schemas": {
            "Quotation": {
                "type": "object",
                "properties": {
                    "order_id": {
                        "default": 0,
                        "type": "integer"
                    },
                    "service": {
                        "type": "string"
                    }
                }
            },
            "Products": {
                "type": "object",
                "properties": {
                    "dimensions": {
                        "type": "object",
                        "properties": {
                            "altura": {
                                "type": "integer"
                            },
                            "largura": {
                                "type": "integer"
                            },
                            "diametro": {
                                "type": "integer"
                            },
                            "comprimento": {
                                "type": "integer"
                            }
                        }
                    },
                    "name": {
                        "type": "string"
                    },
                    "weight": {
                        "type": "string"
                    }
                }
            },
            "Orders": {
                "type": "object",
                "properties": {
                    "cep_origem": {
                        "type": "string"
                    },
                    "cep_destino": {
                        "type": "string"
                    },
                    "product_id": {
                        "default": 0,
                        "type": "integer"
                    }
                }
            }
        }
    },
    "tags": [
        {
            "name": "products",
            "description": "Products"
        }
    ]
}
